{
  "Medium": {
    "value": "Medium",
    "type": "fontWeights"
  },
  "Regular": {
    "value": "Regular",
    "type": "fontWeights"
  },
  "Semi-Bold": {
    "value": "Semi Bold",
    "type": "fontWeights"
  }
}